{
  "formatVersion": 1,
  "database": {
    "version": 12,
    "identityHash": "673c028f1b08eb308179ee7f8adb7a0d",
    "entities": [
      {
        "tableName": "Design",
        "createSql": "CREATE TABLE IF NOT EXISTS `${TABLE_NAME}` (`id` INTEGER PRIMARY KEY AUTOINCREMENT NOT NULL, `design_name` TEXT, `design_image` TEXT, `design_sync_flag` INTEGER NOT NULL, `design_id` TEXT, `conceptId` TEXT, `rollIds` TEXT, `classId` TEXT, `schoolId` TEXT, `approved` TEXT, `comment` TEXT)",
        "fields": [
          {
            "fieldPath": "id",
            "columnName": "id",
            "affinity": "INTEGER",
            "notNull": true
          },
          {
            "fieldPath": "design_name",
            "columnName": "design_name",
            "affinity": "TEXT",
            "notNull": false
          },
          {
            "fieldPath": "design_image",
            "columnName": "design_image",
            "affinity": "TEXT",
            "notNull": false
          },
          {
            "fieldPath": "design_sync_flag",
            "columnName": "design_sync_flag",
            "affinity": "INTEGER",
            "notNull": true
          },
          {
            "fieldPath": "design_id",
            "columnName": "design_id",
            "affinity": "TEXT",
            "notNull": false
          },
          {
            "fieldPath": "conceptId",
            "columnName": "conceptId",
            "affinity": "TEXT",
            "notNull": false
          },
          {
            "fieldPath": "rollIds",
            "columnName": "rollIds",
            "affinity": "TEXT",
            "notNull": false
          },
          {
            "fieldPath": "classId",
            "columnName": "classId",
            "affinity": "TEXT",
            "notNull": false
          },
          {
            "fieldPath": "schoolId",
            "columnName": "schoolId",
            "affinity": "TEXT",
            "notNull": false
          },
          {
            "fieldPath": "approved",
            "columnName": "approved",
            "affinity": "TEXT",
            "notNull": false
          },
          {
            "fieldPath": "comment",
            "columnName": "comment",
            "affinity": "TEXT",
            "notNull": false
          }
        ],
        "primaryKey": {
          "columnNames": [
            "id"
          ],
          "autoGenerate": true
        },
        "indices": [],
        "foreignKeys": []
      },
      {
        "tableName": "Classes",
        "createSql": "CREATE TABLE IF NOT EXISTS `${TABLE_NAME}` (`id` INTEGER PRIMARY KEY AUTOINCREMENT NOT NULL, `className` TEXT, `classId` TEXT)",
        "fields": [
          {
            "fieldPath": "id",
            "columnName": "id",
            "affinity": "INTEGER",
            "notNull": true
          },
          {
            "fieldPath": "className",
            "columnName": "className",
            "affinity": "TEXT",
            "notNull": false
          },
          {
            "fieldPath": "classId",
            "columnName": "classId",
            "affinity": "TEXT",
            "notNull": false
          }
        ],
        "primaryKey": {
          "columnNames": [
            "id"
          ],
          "autoGenerate": true
        },
        "indices": [],
        "foreignKeys": []
      },
      {
        "tableName": "Feedback",
        "createSql": "CREATE TABLE IF NOT EXISTS `${TABLE_NAME}` (`feedback_id` INTEGER PRIMARY KEY AUTOINCREMENT NOT NULL, `feedback_type` TEXT, `feedback_path` TEXT, `design_id` TEXT, `student_id` TEXT, `concept_id` TEXT, `feedback_sync_flag` INTEGER NOT NULL)",
        "fields": [
          {
            "fieldPath": "feedback_id",
            "columnName": "feedback_id",
            "affinity": "INTEGER",
            "notNull": true
          },
          {
            "fieldPath": "feedback_type",
            "columnName": "feedback_type",
            "affinity": "TEXT",
            "notNull": false
          },
          {
            "fieldPath": "feedback_path",
            "columnName": "feedback_path",
            "affinity": "TEXT",
            "notNull": false
          },
          {
            "fieldPath": "design_id",
            "columnName": "design_id",
            "affinity": "TEXT",
            "notNull": false
          },
          {
            "fieldPath": "student_id",
            "columnName": "student_id",
            "affinity": "TEXT",
            "notNull": false
          },
          {
            "fieldPath": "concept_id",
            "columnName": "concept_id",
            "affinity": "TEXT",
            "notNull": false
          },
          {
            "fieldPath": "feedback_sync_flag",
            "columnName": "feedback_sync_flag",
            "affinity": "INTEGER",
            "notNull": true
          }
        ],
        "primaryKey": {
          "columnNames": [
            "feedback_id"
          ],
          "autoGenerate": true
        },
        "indices": [],
        "foreignKeys": []
      },
      {
        "tableName": "User",
        "createSql": "CREATE TABLE IF NOT EXISTS `${TABLE_NAME}` (`user_id` INTEGER PRIMARY KEY AUTOINCREMENT NOT NULL, `email` TEXT, `password` TEXT, `name` TEXT, `school_name` TEXT, `class_name` TEXT, `drop_folder` TEXT)",
        "fields": [
          {
            "fieldPath": "user_id",
            "columnName": "user_id",
            "affinity": "INTEGER",
            "notNull": true
          },
          {
            "fieldPath": "email",
            "columnName": "email",
            "affinity": "TEXT",
            "notNull": false
          },
          {
            "fieldPath": "password",
            "columnName": "password",
            "affinity": "TEXT",
            "notNull": false
          },
          {
            "fieldPath": "name",
            "columnName": "name",
            "affinity": "TEXT",
            "notNull": false
          },
          {
            "fieldPath": "school_name",
            "columnName": "school_name",
            "affinity": "TEXT",
            "notNull": false
          },
          {
            "fieldPath": "class_name",
            "columnName": "class_name",
            "affinity": "TEXT",
            "notNull": false
          },
          {
            "fieldPath": "drop_folder",
            "columnName": "drop_folder",
            "affinity": "TEXT",
            "notNull": false
          }
        ],
        "primaryKey": {
          "columnNames": [
            "user_id"
          ],
          "autoGenerate": true
        },
        "indices": [],
        "foreignKeys": []
      },
      {
        "tableName": "Schools",
        "createSql": "CREATE TABLE IF NOT EXISTS `${TABLE_NAME}` (`id` INTEGER PRIMARY KEY AUTOINCREMENT NOT NULL, `schoolName` TEXT, `schoolId` TEXT, `classes` TEXT, `classesId` TEXT)",
        "fields": [
          {
            "fieldPath": "id",
            "columnName": "id",
            "affinity": "INTEGER",
            "notNull": true
          },
          {
            "fieldPath": "schoolName",
            "columnName": "schoolName",
            "affinity": "TEXT",
            "notNull": false
          },
          {
            "fieldPath": "schoolId",
            "columnName": "schoolId",
            "affinity": "TEXT",
            "notNull": false
          },
          {
            "fieldPath": "classes",
            "columnName": "classes",
            "affinity": "TEXT",
            "notNull": false
          },
          {
            "fieldPath": "classesId",
            "columnName": "classesId",
            "affinity": "TEXT",
            "notNull": false
          }
        ],
        "primaryKey": {
          "columnNames": [
            "id"
          ],
          "autoGenerate": true
        },
        "indices": [],
        "foreignKeys": []
      },
      {
        "tableName": "Students",
        "createSql": "CREATE TABLE IF NOT EXISTS `${TABLE_NAME}` (`id` INTEGER PRIMARY KEY AUTOINCREMENT NOT NULL, `firstName` TEXT, `lastName` TEXT, `rollId` TEXT, `classId` TEXT)",
        "fields": [
          {
            "fieldPath": "id",
            "columnName": "id",
            "affinity": "INTEGER",
            "notNull": true
          },
          {
            "fieldPath": "firstName",
            "columnName": "firstName",
            "affinity": "TEXT",
            "notNull": false
          },
          {
            "fieldPath": "lastName",
            "columnName": "lastName",
            "affinity": "TEXT",
            "notNull": false
          },
          {
            "fieldPath": "rollId",
            "columnName": "rollId",
            "affinity": "TEXT",
            "notNull": false
          },
          {
            "fieldPath": "classId",
            "columnName": "classId",
            "affinity": "TEXT",
            "notNull": false
          }
        ],
        "primaryKey": {
          "columnNames": [
            "id"
          ],
          "autoGenerate": true
        },
        "indices": [],
        "foreignKeys": []
      },
      {
        "tableName": "Concepts",
        "createSql": "CREATE TABLE IF NOT EXISTS `${TABLE_NAME}` (`id` INTEGER PRIMARY KEY AUTOINCREMENT NOT NULL, `conceptName` TEXT, `conceptId` TEXT)",
        "fields": [
          {
            "fieldPath": "id",
            "columnName": "id",
            "affinity": "INTEGER",
            "notNull": true
          },
          {
            "fieldPath": "conceptName",
            "columnName": "conceptName",
            "affinity": "TEXT",
            "notNull": false
          },
          {
            "fieldPath": "conceptId",
            "columnName": "conceptId",
            "affinity": "TEXT",
            "notNull": false
          }
        ],
        "primaryKey": {
          "columnNames": [
            "id"
          ],
          "autoGenerate": true
        },
        "indices": [],
        "foreignKeys": []
      },
      {
        "tableName": "Links",
        "createSql": "CREATE TABLE IF NOT EXISTS `${TABLE_NAME}` (`id` INTEGER PRIMARY KEY AUTOINCREMENT NOT NULL, `designId` TEXT, `sropLink` TEXT)",
        "fields": [
          {
            "fieldPath": "id",
            "columnName": "id",
            "affinity": "INTEGER",
            "notNull": true
          },
          {
            "fieldPath": "designId",
            "columnName": "designId",
            "affinity": "TEXT",
            "notNull": false
          },
          {
            "fieldPath": "sropLink",
            "columnName": "sropLink",
            "affinity": "TEXT",
            "notNull": false
          }
        ],
        "primaryKey": {
          "columnNames": [
            "id"
          ],
          "autoGenerate": true
        },
        "indices": [],
        "foreignKeys": []
      }
    ],
    "setupQueries": [
      "CREATE TABLE IF NOT EXISTS room_master_table (id INTEGER PRIMARY KEY,identity_hash TEXT)",
      "INSERT OR REPLACE INTO room_master_table (id,identity_hash) VALUES(42, \"673c028f1b08eb308179ee7f8adb7a0d\")"
    ]
  }
}